{
    "categories": [
        {
            "name":"UI가이드",
            "items" : [
                { "title": "layout", "url": "./html/layout"},
                { "title": "layout2", "url": "./html/layout2"}
            ]
        },
        {
            "name":"로그인",
            "items" : [
                { "title": "layout", "url": "./html/layout"},
                { "title": "layout2", "url": "./html/layout2"}
            ]
        },
        {
            "name":"sub",
            "items" : [
                { "title": "가이드", "url": "./html/layout"},
                { "title": "가이드3", "url": "./html/layout2"},
                { "title": "가이드4", "url": "./html/layout2"}
            ]
        }
    ]
}
